…
Importantly, diseased mice were compared with littermate controls, so we
expect technical errors across the three (disease vs. wilde-type)
comparisons to be independent.

``` r
library(rankGap)
library(tibble)

tibble(d_B_limma)
#> # A tibble: 13,474 × 25
#>    ensembl_id      logFC.KS1 AveExpr.KS1  t.KS1 P.Value.KS1 adj.P.Val.KS1  B.KS1
#>    <chr>               <dbl>       <dbl>  <dbl>       <dbl>         <dbl>  <dbl>
#>  1 ENSMUSG0000000…    0.0535       6.96   0.878     0.402           0.772 -6.92 
#>  2 ENSMUSG0000000…    0.221        1.35   1.08      0.306           0.711 -5.50 
#>  3 ENSMUSG0000000…    0.176        5.98   1.40      0.195           0.633 -6.25 
#>  4 ENSMUSG0000000…    0.759       -1.08   1.85      0.0966          0.533 -4.19 
#>  5 ENSMUSG0000000…   -0.428        9.18  -1.63      0.152           0.594 -6.12 
#>  6 ENSMUSG0000000…    0.105        4.98   1.41      0.192           0.629 -6.05 
#>  7 ENSMUSG0000000…   -0.140        5.23  -1.45      0.180           0.618 -6.03 
#>  8 ENSMUSG0000000…    0.327       -0.565  0.834     0.425           0.783 -5.25 
#>  9 ENSMUSG0000000…    0.547        3.42   4.49      0.00135         0.135 -0.893
#> 10 ENSMUSG0000000…   -0.395       -0.806 -0.823     0.431           0.786 -5.15 
#> # ℹ 13,464 more rows
#> # ℹ 18 more variables: se.KS1 <dbl>, se_unshrunk.KS1 <dbl>, logFC.KS2 <dbl>,
#> #   AveExpr.KS2 <dbl>, t.KS2 <dbl>, P.Value.KS2 <dbl>, adj.P.Val.KS2 <dbl>,
#> #   B.KS2 <dbl>, se.KS2 <dbl>, se_unshrunk.KS2 <dbl>, logFC.RT <dbl>,
#> #   AveExpr.RT <dbl>, t.RT <dbl>, P.Value.RT <dbl>, adj.P.Val.RT <dbl>,
#> #   B.RT <dbl>, se.RT <dbl>, se_unshrunk.RT <dbl>
```
…
